{
  "name": "pf2ettw-sheet-skill-actions",
  "title": "pf2ettw Character Sheet Skill Actions",
  "description": "It puts the skill actions on the sheet or it gets the hose again",
  "version": "1.3.0",
  "author": "Jim Daily",
  "authors": [
    {
      "name": "Jim Daily",
      "email": "Jaypeedaylee@gmail.com",
      "discord": "Flash Granola#3086"
    }
  ],
  "minimumCoreVersion": "0.8.9",
  "compatibleCoreVersion": "9",
  "esmodules": ["module/sheet-skill-actions.js"],
  "languages": [
    {
      "lang": "en",
      "name": "English",
      "path": "lang/en.json"
    },
    {
      "lang": "fr",
      "name": "Français",
      "path": "lang/fr.json"
    }
  ],
  "url": "https://github.com/jamespdaily/pf2e-sheet-skill-actions/",
  "manifest": "https://gitlab.com/ehlii/ttw-modules/-/raw/main/pf2ettw-sheet-skill-actions/module.json",
  "download": "https://gitlab.com/ehlii/ttw-modules/-/raw/main/pf2ettw-sheet-skill-actions/pf2e-sheet-skill-actions-v1.3ttw.zip",
  "system": ["pf2ettw"],
  "media": [
    {
      "type": "icon",
      "url": "https://avatars2.githubusercontent.com/u/71292812?s=400&u=ccdb4eeb7abf551ca8f314e5a9bfd0479a4d3d41&v=4"
    }
  ]
}
