{
  "name": "pf2ettw-animal-companions",
  "title": "pf2ettw Companion Compendia",
  "description": "Compendia containing a class, ancestries, actions, and feats to support pf2ettw companions",
  "author": "Tikael",
  "authors": [],
  "url": "https://github.com/TikaelSol/pf2e-Animal-Companions",
  "flags": {},
  "version": "5.2",
  "minimumCoreVersion": "9",
  "compatibleCoreVersion": "9",
  "scripts": [],
  "esmodules": [],
  "styles": [],
  "languages": [],
  "packs": [
    {
      "label": "AC Ancestries",
      "entity": "Item",
      "name": "AC-Ancestries-and-Class",
      "path": "./packs/ac-ancestries-and-class.db",
      "system": "pf2ettw",
      "package": "pf2ettw-animal-companions",
      "private": false
    },
    {
      "label": "AC Feats",
      "entity": "Item",
      "name": "AC-Feats",
      "path": "./packs/ac-feats.db",
      "system": "pf2ettw",
      "package": "pf2ettw-animal-companions",
      "private": false
    },
    {
      "label": "AC Advanced Maneuvers",
      "entity": "Item",
      "name": "AC-Advanced-Maneuvers",
      "path": "./packs/ac-advanced-maneuvers.db",
      "system": "pf2ettw",
      "package": "pf2ettw-animal-companions",
      "private": false
    },
    {
      "label": "AC Features",
      "entity": "Item",
      "name": "AC-Features",
      "path": "./packs/ac-features.db",
      "system": "pf2ettw",
      "package": "pf2ettw-animal-companions",
      "private": false
    },
    {
      "label": "AC Support Benefits",
      "entity": "Item",
      "name": "AC-Support",
      "path": "./packs/ac-support-benefits.db",
      "system": "pf2ettw",
      "package": "pf2ettw-animal-companions",
      "private": false
    },
    {
      "label": "AC Construct Companions",
      "entity": "Item",
      "name": "AC-Construct-Companions",
      "path": "./packs/ac-construct-companions.db",
      "system": "pf2ettw",
      "package": "pf2ettw-animal-companions",
      "private": false
    },
    {
      "label": "AC Construct Breakthroughs",
      "entity": "Item",
      "name": "AC-Construct-Breakthroughs",
      "path": "./packs/ac-construct-breakthroughs.db",
      "system": "pf2ettw",
      "package": "pf2ettw-animal-companions",
      "private": false
    },
    {
      "label": "AC Eidolons",
      "entity": "Item",
      "name": "AC-Eidolons",
      "path": "./packs/ac-eidolons.db",
      "system": "pf2ettw",
      "package": "pf2ettw-animal-companions",
      "private": false
    },
    {
      "label": "AC Evolution Feats",
      "entity": "Item",
      "name": "AC-Evolution-Feats",
      "path": "./packs/ac-evolution-feats.db",
      "system": "pf2ettw",
      "package": "pf2ettw-animal-companions",
      "private": false
    }
  ],
  "system": [
    "pf2ettw"
  ],
  "dependencies": [],
  "socket": false,
  "manifest": "https://gitlab.com/ehlii/ttw-modules/-/raw/main/pf2ettw-animal-companions/module.json",
  "download": "https://gitlab.com/ehlii/ttw-modules/-/raw/main/pf2ettw-animal-companions/pf2e-animal-companions-v5.2ttw.zip",
  "protected": false,
  "coreTranslation": false,
  "minimumSystemVersion": "0.1.2",
  "library": false
}
